Exploratory Data Analysis of the most popular human gene — Practical tools for quick data visualization
…
muts %>% drop_na(effect)

## # A tibble: 9,104 × 25
##    sample       chr   start end   gene  reference alt   altGene effect aminoAcid
##    <chr>        <chr> <chr> <chr> <chr> <chr>     <chr> <chr>   <chr>  <chr>    
##  1 TCGA-02-000… chr17 7577… 7577… TP53  G         A     <NA>    Misse… p.R282W  
##  2 TCGA-02-003… chr17 7577… 7577… TP53  C         T     <NA>    Misse… p.R248Q  
##  3 TCGA-02-004… no v… no v… no v… no v… no varia… no v… no var… no va… no varia…
##  4 TCGA-02-005… chr17 7578… 7578… TP53  C         T     <NA>    Misse… p.V216M  
##  5 TCGA-02-247… no v… no v… no v… no v… no varia… no v… no var… no va… no varia…
##  6 TCGA-02-248… chr17 7577… 7577… TP53  C         T     <NA>    Misse… p.R273H  
##  7 TCGA-02-248… chr17 7577… 7577… TP53  C         T     <NA>    Misse… p.R248Q  
##  8 TCGA-02-248… no v… no v… no v… no v… no varia… no v… no var… no va… no varia…
##  9 TCGA-04-135… no v… no v… no v… no v… no varia… no v… no var… no va… no varia…
## 10 TCGA-04-136… chr17 7577… 7577… TP53  C         A     <NA>    Misse… p.R280I  
## # … with 9,094 more rows, and 15 more variables: rnaVaf <chr>, dnaVaf <chr>,
## #   `_primary_disease` <chr>, age_at_initial_pathologic_diagnosis <chr>,
## #   clinical_stage <chr>, gender <chr>, histological_grade <chr>,
## #   histological_type <chr>, OS <chr>, OS.time <dbl>, residual_tumor <chr>,
## #   sample_type <chr>, tumor_status <chr>, `_PATIENT` <chr>, cancer_type <chr>
…
