…
    # Let us check for the Adelie penguin from Trogersen with the longest bill using arrange

    adelie_torgesen %>% 
      arrange(-bill_length_mm)

    ## # A tibble: 47 × 3
    ##    species island    bill_length_mm
    ##    <chr>   <chr>              <dbl>
    ##  1 Adelie  Torgersen           46  
    ##  2 Adelie  Torgersen           45.8
    ##  3 Adelie  Torgersen           44.1
    ##  4 Adelie  Torgersen           43.1
    ##  5 Adelie  Torgersen           42.9
    ##  6 Adelie  Torgersen           42.8
    ##  7 Adelie  Torgersen           42.5
    ##  8 Adelie  Torgersen           42.1
    ##  9 Adelie  Torgersen           41.8
    ## 10 Adelie  Torgersen           41.5
    ## # ℹ 37 more rows
…
    ## # A tibble: 6 × 4
    ##   species island    bill_length_mm bill_depth_mm
    ##   <chr>   <chr>              <dbl>         <dbl>
    ## 1 Adelie  Torgersen           39.1          18.7
    ## 2 Adelie  Torgersen           39.5          17.4
    ## 3 Adelie  Torgersen           40.3          18  
    ## 4 Adelie  Torgersen           36.7          19.3
    ## 5 Adelie  Torgersen           39.3          20.6
    ## 6 Adelie  Torgersen           38.9          17.8

    # Task 2.2: Now check for the penguin with the shortest bill depth.

    dat_subset %>% arrange(bill_depth_mm)

    ## # A tibble: 333 × 4
    ##    species island bill_length_mm bill_depth_mm
    ##    <chr>   <chr>           <dbl>         <dbl>
    ##  1 Gentoo  Biscoe           42.9          13.1
    ##  2 Gentoo  Biscoe           46.1          13.2
    ##  3 Gentoo  Biscoe           44.9          13.3
    ##  4 Gentoo  Biscoe           43.3          13.4
    ##  5 Gentoo  Biscoe           46.5          13.5
    ##  6 Gentoo  Biscoe           42            13.5
    ##  7 Gentoo  Biscoe           44            13.6
    ##  8 Gentoo  Biscoe           40.9          13.7
    ##  9 Gentoo  Biscoe           45.5          13.7
    ## 10 Gentoo  Biscoe           42.6          13.7
    ## # ℹ 323 more rows
…
    # Now let us create a new column that contains the mean bill_length for each species

    dat_processed = dat %>% 
      
      # First group by species so that every following operation is done per group
      group_by(species) %>% 
      
      # Now create a new column called mean_bill_length_mm
      mutate(mean_bill_length_mm = mean(bill_length_mm))

    dat_processed

    ## # A tibble: 333 × 9
    ## # Groups:   species [3]
    ##    species island    bill_length_mm bill_depth_mm flipper_length_mm body_mass_g
    ##    <chr>   <chr>              <dbl>         <dbl>             <dbl>       <dbl>
    ##  1 Adelie  Torgersen           39.1          18.7               181        3750
    ##  2 Adelie  Torgersen           39.5          17.4               186        3800
    ##  3 Adelie  Torgersen           40.3          18                 195        3250
    ##  4 Adelie  Torgersen           36.7          19.3               193        3450
    ##  5 Adelie  Torgersen           39.3          20.6               190        3650
    ##  6 Adelie  Torgersen           38.9          17.8               181        3625
    ##  7 Adelie  Torgersen           39.2          19.6               195        4675
    ##  8 Adelie  Torgersen           41.1          17.6               182        3200
    ##  9 Adelie  Torgersen           38.6          21.2               191        3800
    ## 10 Adelie  Torgersen           34.6          21.1               198        4400
    ## # ℹ 323 more rows
    ## # ℹ 3 more variables: sex <chr>, year <dbl>, mean_bill_length_mm <dbl>
…
