…
``` r
muts %>% drop_na(effect)
```

    ## # A tibble: 9,104 x 25
    ##    sample chr     start     end gene  reference alt   altGene effect aminoAcid
    ##    <chr>  <chr>   <dbl>   <dbl> <chr> <chr>     <chr> <lgl>   <chr>  <chr>    
    ##  1 TCGA-… chr17 7577094 7577094 TP53  G         A     NA      Misse… p.R282W  
    ##  2 TCGA-… chr17 7577538 7577538 TP53  C         T     NA      Misse… p.R248Q  
    ##  3 TCGA-… no v…      NA      NA no v… no varia… no v… NA      no va… no varia…
    ##  4 TCGA-… chr17 7578203 7578203 TP53  C         T     NA      Misse… p.V216M  
    ##  5 TCGA-… no v…      NA      NA no v… no varia… no v… NA      no va… no varia…
    ##  6 TCGA-… chr17 7577120 7577120 TP53  C         T     NA      Misse… p.R273H  
    ##  7 TCGA-… chr17 7577538 7577538 TP53  C         T     NA      Misse… p.R248Q  
    ##  8 TCGA-… no v…      NA      NA no v… no varia… no v… NA      no va… no varia…
    ##  9 TCGA-… no v…      NA      NA no v… no varia… no v… NA      no va… no varia…
    ## 10 TCGA-… chr17 7577099 7577099 TP53  C         A     NA      Misse… p.R280I  
    ## # … with 9,094 more rows, and 15 more variables: rnaVaf <lgl>, dnaVaf <dbl>,
    ## #   `_primary_disease` <chr>, age_at_initial_pathologic_diagnosis <dbl>,
    ## #   clinical_stage <chr>, gender <chr>, histological_grade <chr>,
    ## #   histological_type <chr>, OS <dbl>, OS.time <dbl>, residual_tumor <lgl>,
    ## #   sample_type <chr>, tumor_status <chr>, `_PATIENT` <chr>, cancer_type <chr>
…
